^D:\PROGRAMMING\INFORMATICA GRAFICA\X64\RELEASE\INT\IMGUI.OBJ|D:\PROGRAMMING\INFORMATICA GRAFICA\X64\RELEASE\INT\IMGUI_DEMO.OBJ|D:\PROGRAMMING\INFORMATICA GRAFICA\X64\RELEASE\INT\IMGUI_DRAW.OBJ|D:\PROGRAMMING\INFORMATICA GRAFICA\X64\RELEASE\INT\IMGUI_IMPL_SDL_GL3.OBJ|D:\PROGRAMMING\INFORMATICA GRAFICA\X64\RELEASE\INT\MAIN.OBJ|D:\PROGRAMMING\INFORMATICA GRAFICA\X64\RELEASE\INT\MY_RENDER_CODE.OBJ|D:\PROGRAMMING\INFORMATICA GRAFICA\X64\RELEASE\INT\PHYSICS.OBJ|D:\PROGRAMMING\INFORMATICA GRAFICA\X64\RELEASE\INT\RENDER.OBJ|D:\PROGRAMMING\INFORMATICA GRAFICA\X64\RELEASE\INT\RENDER_PRIMS.OBJ
C:\WINDOWS\GLOBALIZATION\SORTING\SORTDEFAULT.NLS
C:\PROGRAM FILES (X86)\WINDOWS KITS\10\LIB\10.0.15063.0\UM\X64\OPENGL32.LIB
D:\PROGRAMMING\INFORMATICA GRAFICA\CODE\LIBS\GLEW32.LIB
D:\PROGRAMMING\INFORMATICA GRAFICA\CODE\LIBS\SDL2.LIB
D:\PROGRAMMING\INFORMATICA GRAFICA\CODE\LIBS\SDL2MAIN.LIB
C:\PROGRAM FILES (X86)\WINDOWS KITS\10\LIB\10.0.15063.0\UM\X64\KERNEL32.LIB
C:\PROGRAM FILES (X86)\WINDOWS KITS\10\LIB\10.0.15063.0\UM\X64\USER32.LIB
C:\PROGRAM FILES (X86)\WINDOWS KITS\10\LIB\10.0.15063.0\UM\X64\GDI32.LIB
C:\PROGRAM FILES (X86)\WINDOWS KITS\10\LIB\10.0.15063.0\UM\X64\WINSPOOL.LIB
C:\PROGRAM FILES (X86)\WINDOWS KITS\10\LIB\10.0.15063.0\UM\X64\COMDLG32.LIB
C:\PROGRAM FILES (X86)\WINDOWS KITS\10\LIB\10.0.15063.0\UM\X64\ADVAPI32.LIB
C:\PROGRAM FILES (X86)\WINDOWS KITS\10\LIB\10.0.15063.0\UM\X64\SHELL32.LIB
C:\PROGRAM FILES (X86)\WINDOWS KITS\10\LIB\10.0.15063.0\UM\X64\OLE32.LIB
C:\PROGRAM FILES (X86)\WINDOWS KITS\10\LIB\10.0.15063.0\UM\X64\OLEAUT32.LIB
C:\PROGRAM FILES (X86)\WINDOWS KITS\10\LIB\10.0.15063.0\UM\X64\UUID.LIB
C:\PROGRAM FILES (X86)\WINDOWS KITS\10\LIB\10.0.15063.0\UM\X64\ODBC32.LIB
C:\PROGRAM FILES (X86)\WINDOWS KITS\10\LIB\10.0.15063.0\UM\X64\ODBCCP32.LIB
D:\PROGRAMMING\INFORMATICA GRAFICA\X64\RELEASE\INT\IMGUI.OBJ
D:\PROGRAMMING\INFORMATICA GRAFICA\X64\RELEASE\INT\IMGUI_DEMO.OBJ
D:\PROGRAMMING\INFORMATICA GRAFICA\X64\RELEASE\INT\IMGUI_DRAW.OBJ
D:\PROGRAMMING\INFORMATICA GRAFICA\X64\RELEASE\INT\IMGUI_IMPL_SDL_GL3.OBJ
D:\PROGRAMMING\INFORMATICA GRAFICA\X64\RELEASE\INT\MY_RENDER_CODE.OBJ
D:\PROGRAMMING\INFORMATICA GRAFICA\X64\RELEASE\INT\MAIN.OBJ
D:\PROGRAMMING\INFORMATICA GRAFICA\X64\RELEASE\INT\PHYSICS.OBJ
D:\PROGRAMMING\INFORMATICA GRAFICA\X64\RELEASE\INT\RENDER.OBJ
D:\PROGRAMMING\INFORMATICA GRAFICA\X64\RELEASE\INT\RENDER_PRIMS.OBJ
D:\PROGRAM FILES (X86)\MICROSOFT VISUAL STUDIO\2017\COMMUNITY\VC\TOOLS\MSVC\14.12.25827\BIN\HOSTX86\X64\C2.DLL
C:\PROGRAM FILES (X86)\WINDOWS KITS\10\LIB\10.0.15063.0\UM\X64\IMM32.LIB
D:\PROGRAM FILES (X86)\MICROSOFT VISUAL STUDIO\2017\COMMUNITY\VC\TOOLS\MSVC\14.12.25827\LIB\X64\MSVCRT.LIB
D:\PROGRAM FILES (X86)\MICROSOFT VISUAL STUDIO\2017\COMMUNITY\VC\TOOLS\MSVC\14.12.25827\LIB\X64\OLDNAMES.LIB
D:\PROGRAM FILES (X86)\MICROSOFT VISUAL STUDIO\2017\COMMUNITY\VC\TOOLS\MSVC\14.12.25827\LIB\X64\MSVCPRT.LIB
D:\PROGRAM FILES (X86)\MICROSOFT VISUAL STUDIO\2017\COMMUNITY\VC\TOOLS\MSVC\14.12.25827\LIB\X64\VCRUNTIME.LIB
C:\PROGRAM FILES (X86)\WINDOWS KITS\10\LIB\10.0.15063.0\UCRT\X64\UCRT.LIB
C:\WINDOWS\SYSTEM32\TZRES.DLL
D:\PROGRAM FILES (X86)\MICROSOFT VISUAL STUDIO\2017\COMMUNITY\VC\TOOLS\MSVC\14.12.25827\BIN\HOSTX86\X64\1033\LINKUI.DLL
C:\PROGRAM FILES (X86)\WINDOWS KITS\10\BIN\10.0.15063.0\X86\RC.EXE
D:\PROGRAM FILES (X86)\MICROSOFT VISUAL STUDIO\2017\COMMUNITY\VC\TOOLS\MSVC\14.12.25827\BIN\HOSTX86\X86\CVTRES.EXE
