c:\users\torange\documents\glframework\x64\debug\int\vc141.pdb
c:\users\torange\documents\glframework\x64\debug\int\vc141.idb
c:\users\torange\documents\glframework\x64\debug\int\imgui.nativecodeanalysis.xml
c:\users\torange\documents\glframework\x64\debug\int\imgui_demo.nativecodeanalysis.xml
c:\users\torange\documents\glframework\x64\debug\int\imgui_draw.nativecodeanalysis.xml
c:\users\torange\documents\glframework\x64\debug\int\imgui_impl_sdl_gl3.nativecodeanalysis.xml
c:\users\torange\documents\glframework\x64\debug\int\main.nativecodeanalysis.xml
c:\users\torange\documents\glframework\x64\debug\int\physics.nativecodeanalysis.xml
c:\users\torange\documents\glframework\x64\debug\int\render.nativecodeanalysis.xml
c:\users\torange\documents\glframework\x64\debug\int\render_prims.nativecodeanalysis.xml
c:\users\torange\documents\glframework\x64\debug\int\render_prims.obj
c:\users\torange\documents\glframework\x64\debug\int\render.obj
c:\users\torange\documents\glframework\x64\debug\int\physics.obj
c:\users\torange\documents\glframework\x64\debug\int\imgui_impl_sdl_gl3.obj
c:\users\torange\documents\glframework\x64\debug\int\imgui_draw.obj
c:\users\torange\documents\glframework\x64\debug\int\imgui_demo.obj
c:\users\torange\documents\glframework\x64\debug\int\imgui.obj
c:\users\torange\documents\glframework\x64\debug\int\main.obj
c:\users\torange\documents\glframework\x64\debug\int\render_simple.obj
c:\users\torange\documents\glframework\x64\debug\int\my_render_code.obj
c:\users\torange\documents\glframework\x64\debug\gl_framework.lib
c:\users\torange\documents\glframework\x64\debug\gl_framework.exp
c:\users\torange\documents\glframework\x64\debug\gl_framework.ilk
c:\users\torange\documents\glframework\x64\debug\gl_framework.exe
c:\users\torange\documents\glframework\x64\debug\gl_framework.pdb
c:\users\torange\documents\glframework\x64\debug\int\main.obj.enc
c:\users\torange\documents\glframework\x64\debug\int\nativecodeanalysis.read.1.tlog
c:\users\torange\documents\glframework\x64\debug\int\vc.nativecodeanalysis.all.xml
c:\users\torange\documents\glframework\x64\debug\gl_framework.exe.lastcodeanalysissucceeded
c:\users\torange\documents\glframework\x64\debug\int\gl_framework.tlog\cl.command.1.tlog
c:\users\torange\documents\glframework\x64\debug\int\gl_framework.tlog\cl.read.1.tlog
c:\users\torange\documents\glframework\x64\debug\int\gl_framework.tlog\cl.write.1.tlog
c:\users\torange\documents\glframework\x64\debug\int\gl_framework.tlog\gl_framework.write.1u.tlog
c:\users\torange\documents\glframework\x64\debug\int\gl_framework.tlog\link.command.1.tlog
c:\users\torange\documents\glframework\x64\debug\int\gl_framework.tlog\link.read.1.tlog
c:\users\torange\documents\glframework\x64\debug\int\gl_framework.tlog\link.write.1.tlog
